Reproducible documents
…
             Rasmus Tanderup Jensen 

Setup in chunk will automatically run everything it

library(tidyverse)
library(NHANES)

nhanes_small <- read_csv(here::here("data/nhanes_small.csv"))

nhanes_small <- nhanes_small %>%
  select(age, sex, bmi, diabetes, phys_active, bp_sys_ave, bp_dia_ave, education)

nhanes_small

# A tibble: 10,000 × 8
     age sex      bmi diabetes phys_active bp_sys_ave bp_dia_ave education   
   <dbl> <chr>  <dbl> <chr>    <chr>            <dbl>      <dbl> <chr>       
 1    34 male    32.2 No       No                 113         85 High School 
 2    34 male    32.2 No       No                 113         85 High School 
 3    34 male    32.2 No       No                 113         85 High School 
 4     4 male    15.3 No       <NA>                NA         NA <NA>        
 5    49 female  30.6 No       No                 112         75 Some College
 6     9 male    16.8 No       <NA>                86         47 <NA>        
 7     8 male    20.6 No       <NA>               107         37 <NA>        
 8    45 female  27.2 No       Yes                118         64 College Grad
 9    45 female  27.2 No       Yes                118         64 College Grad
10    45 female  27.2 No       Yes                118         64 College Grad
# ℹ 9,990 more rows
…
